---
http_interactions:
- request:
    method: post
    uri: https://api.flickr.com/services/rest/
    body:
      encoding: US-ASCII
      string: text=ruby+on+rails&per_page=12&method=flickr.photos.search&format=json&nojsoncallback=1
    headers:
      Accept-Encoding:
      - gzip;q=1.0,deflate;q=0.6,identity;q=0.3
      Accept:
      - "*/*"
      User-Agent:
      - FlickRaw/0.9.9
      Authorization:
      - OAuth realm="https://api.flickr.com/services/rest/", oauth_consumer_key="b3ea5401a75fffafe414f516da5f82ec",
        oauth_nonce="8ebBOIH0cbfxuh5Nlu1riybwEqUSQxNpYYF2Q0KxHH0%3D", oauth_signature="0cdafaa73329bedc%26",
        oauth_signature_method="PLAINTEXT", oauth_timestamp="1476696226", oauth_token="",
        oauth_version="1.0"
      Content-Type:
      - application/x-www-form-urlencoded
  response:
    status:
      code: 200
      message: OK
    headers:
      Date:
      - Mon, 17 Oct 2016 09:23:46 GMT
      Content-Type:
      - application/json
      Content-Length:
      - '619'
      P3p:
      - policyref="https://policies.yahoo.com/w3c/p3p.xml", CP="CAO DSP COR CUR ADM
        DEV TAI PSA PSD IVAi IVDi CONi TELo OTPi OUR DELi SAMi OTRi UNRi PUBi IND
        PHY ONL UNI PUR FIN COM NAV INT DEM CNT STA POL HEA PRE LOC GOV"
      X-Content-Type-Options:
      - nosniff
      Cache-Control:
      - private
      X-Served-By:
      - www56.flickr.bf1.yahoo.com
      X-Frame-Options:
      - SAMEORIGIN
      Vary:
      - Accept-Encoding
      Age:
      - '0'
      Via:
      - http/1.1 fts106.flickr.bf1.yahoo.com (ApacheTrafficServer [cMsSf ]), http/1.1
        r08.ycpi.loa.yahoo.net (ApacheTrafficServer [cMsSf ])
      Server:
      - ATS
      Connection:
      - keep-alive
    body:
      encoding: ASCII-8BIT
      string: '{"photos":{"page":1,"pages":787,"perpage":12,"total":"9433","photo":[{"id":"30315348576","owner":"145840536@N03","secret":"ebb2ed47da","server":"5750","farm":6,"title":"Web
        Programmer Malaysia","ispublic":1,"isfriend":0,"isfamily":0},{"id":"30350103485","owner":"144236542@N04","secret":"65e3661348","server":"5732","farm":6,"title":"Web
        Programmer Malaysia","ispublic":1,"isfriend":0,"isfamily":0},{"id":"30017367630","owner":"145746436@N07","secret":"02840eafe2","server":"7501","farm":8,"title":"Pinned
        to Ruby on Rails Solutions on Pinterest","ispublic":1,"isfriend":0,"isfamily":0},{"id":"30122169292","owner":"145216859@N03","secret":"4d87510aa7","server":"7482","farm":8,"title":"Adam
        PSD","ispublic":1,"isfriend":0,"isfamily":0},{"id":"30133509366","owner":"145746436@N07","secret":"0de3a103fa","server":"8275","farm":9,"title":"Pinned
        to Ruby on Rails Solutions on Pinterest","ispublic":1,"isfriend":0,"isfamily":0},{"id":"29815642820","owner":"144872484@N03","secret":"48c91f5d15","server":"5227","farm":6,"title":"ruby
        on rails development company-tecorb teconologies","ispublic":1,"isfriend":0,"isfamily":0},{"id":"29480753253","owner":"145746436@N07","secret":"12afedd993","server":"8663","farm":9,"title":"Pinned
        to Ruby on Rails Solutions on Pinterest","ispublic":1,"isfriend":0,"isfamily":0},{"id":"29459962523","owner":"144872484@N03","secret":"bc489cc901","server":"8140","farm":9,"title":"Ruby
        on Rails Development Company","ispublic":1,"isfriend":0,"isfamily":0},{"id":"29983037315","owner":"142476497@N08","secret":"43639cbf14","server":"8700","farm":9,"title":"gmtg-infographics-ROR","ispublic":1,"isfriend":0,"isfamily":0},{"id":"29689063620","owner":"142476497@N08","secret":"2c63db95d0","server":"8337","farm":9,"title":"ROR
        vs Java","ispublic":1,"isfriend":0,"isfamily":0},{"id":"29224758983","owner":"145746436@N07","secret":"4d76b10990","server":"5738","farm":6,"title":"Pinned
        to Ruby on Rails Solutions on Pinterest","ispublic":1,"isfriend":0,"isfamily":0},{"id":"29374121734","owner":"145746436@N07","secret":"122aa5f3bb","server":"8370","farm":9,"title":"Pinned
        to Ruby on Rails Solutions on Pinterest","ispublic":1,"isfriend":0,"isfamily":0}]},"stat":"ok"}'
    http_version: 
  recorded_at: Mon, 17 Oct 2016 09:23:46 GMT
recorded_with: VCR 3.0.3
